{"page": 1, "per_page": 20, "photos": [{"id": 19534794, "width": 2224, "height": 3954, "url": "https://www.pexels.com/photo/sky-reflecting-in-a-placid-alpine-lake-19534794/", "photographer": "Vitor Baltazar", "photographer_url": "https://www.pexels.com/@vitor-baltazar-851015131", "photographer_id": 851015131, "avg_color": "#8DA6BA", "src": {"original": "https://images.pexels.com/photos/19534794/pexels-photo-19534794.jpeg", "large2x": "https://images.pexels.com/photos/19534794/pexels-photo-19534794.jpeg?auto=compress&cs=tinysrgb&dpr=2&h=650&w=940", "large": "https://images.pexels.com/photos/19534794/pexels-photo-19534794.jpeg?auto=compress&cs=tinysrgb&h=650&w=940", "medium": "https://images.pexels.com/photos/19534794/pexels-photo-19534794.jpeg?auto=compress&cs=tinysrgb&h=350", "small": "https://images.pexels.com/photos/19534794/pexels-photo-19534794.jpeg?auto=compress&cs=tinysrgb&h=130", "portrait": "https://images.pexels.com/photos/19534794/pexels-photo-19534794.jpeg?auto=compress&cs=tinysrgb&fit=crop&h=1200&w=800", "landscape": "https://images.pexels.com/photos/19534794/pexels-photo-19534794.jpeg?auto=compress&cs=tinysrgb&fit=crop&h=627&w=1200", "tiny": "https://images.pexels.com/photos/19534794/pexels-photo-19534794.jpeg?auto=compress&cs=tinysrgb&dpr=1&fit=crop&h=200&w=280"}, "liked": false, "alt": ""}, {"id": 19541464, "width": 3510, "height": 6240, "url": "https://www.pexels.com/photo/buildings-silhouettes-and-stars-on-night-sky-19541464/", "photographer": "Orhan Pergel", "photographer_url": "https://www.pexels.com/@skylake", "photographer_id": 276311913, "avg_color": "#0C2B48", "src": {"original": "https://images.pexels.com/photos/19541464/pexels-photo-19541464.jpeg", "large2x": "https://images.pexels.com/photos/19541464/pexels-photo-19541464.jpeg?auto=compress&cs=tinysrgb&dpr=2&h=650&w=940", "large": "https://images.pexels.com/photos/19541464/pexels-photo-19541464.jpeg?auto=compress&cs=tinysrgb&h=650&w=940", "medium": "https://images.pexels.com/photos/19541464/pexels-photo-19541464.jpeg?auto=compress&cs=tinysrgb&h=350", "small": "https://images.pexels.com/photos/19541464/pexels-photo-19541464.jpeg?auto=compress&cs=tinysrgb&h=130", "portrait": "https://images.pexels.com/photos/19541464/pexels-photo-19541464.jpeg?auto=compress&cs=tinysrgb&fit=crop&h=1200&w=800", "landscape": "https://images.pexels.com/photos/19541464/pexels-photo-19541464.jpeg?auto=compress&cs=tinysrgb&fit=crop&h=627&w=1200", "tiny": "https://images.pexels.com/photos/19541464/pexels-photo-19541464.jpeg?auto=compress&cs=tinysrgb&dpr=1&fit=crop&h=200&w=280"}, "liked": false, "alt": ""}, {"id": 19546050, "width": 4000, "height": 6000, "url": "https://www.pexels.com/photo/the-space-needle-against-the-sky-seattle-washington-usa-19546050/", "photographer": "Sriram Kodey", "photographer_url": "https://www.pexels.com/@sriram-kodey-479684857", "photographer_id": 479684857, "avg_color": "#7D8CA9", "src": {"original": "https://images.pexels.com/photos/19546050/pexels-photo-19546050.jpeg", "large2x": "https://images.pexels.com/photos/19546050/pexels-photo-19546050.jpeg?auto=compress&cs=tinysrgb&dpr=2&h=650&w=940", "large": "https://images.pexels.com/photos/19546050/pexels-photo-19546050.jpeg?auto=compress&cs=tinysrgb&h=650&w=940", "medium": "https://images.pexels.com/photos/19546050/pexels-photo-19546050.jpeg?auto=compress&cs=tinysrgb&h=350", "small": "https://images.pexels.com/photos/19546050/pexels-photo-19546050.jpeg?auto=compress&cs=tinysrgb&h=130", "portrait": "https://images.pexels.com/photos/19546050/pexels-photo-19546050.jpeg?auto=compress&cs=tinysrgb&fit=crop&h=1200&w=800", "landscape": "https://images.pexels.com/photos/19546050/pexels-photo-19546050.jpeg?auto=compress&cs=tinysrgb&fit=crop&h=627&w=1200", "tiny": "https://images.pexels.com/photos/19546050/pexels-photo-19546050.jpeg?auto=compress&cs=tinysrgb&dpr=1&fit=crop&h=200&w=280"}, "liked": false, "alt": ""}, {"id": 19541238, "width": 3024, "height": 4032, "url": "https://www.pexels.com/photo/trees-and-sky-19541238/", "photographer": "Kate St", "photographer_url": "https://www.pexels.com/@kate-st-809429780", "photographer_id": 809429780, "avg_color": "#495E71", "src": {"original": "https://images.pexels.com/photos/19541238/pexels-photo-19541238.jpeg", "large2x": "https://images.pexels.com/photos/19541238/pexels-photo-19541238.jpeg?auto=compress&cs=tinysrgb&dpr=2&h=650&w=940", "large": "https://images.pexels.com/photos/19541238/pexels-photo-19541238.jpeg?auto=compress&cs=tinysrgb&h=650&w=940", "medium": "https://images.pexels.com/photos/19541238/pexels-photo-19541238.jpeg?auto=compress&cs=tinysrgb&h=350", "small": "https://images.pexels.com/photos/19541238/pexels-photo-19541238.jpeg?auto=compress&cs=tinysrgb&h=130", "portrait": "https://images.pexels.com/photos/19541238/pexels-photo-19541238.jpeg?auto=compress&cs=tinysrgb&fit=crop&h=1200&w=800", "landscape": "https://images.pexels.com/photos/19541238/pexels-photo-19541238.jpeg?auto=compress&cs=tinysrgb&fit=crop&h=627&w=1200", "tiny": "https://images.pexels.com/photos/19541238/pexels-photo-19541238.jpeg?auto=compress&cs=tinysrgb&dpr=1&fit=crop&h=200&w=280"}, "liked": false, "alt": ""}, {"id": 19541576, "width": 6000, "height": 4000, "url": "https://www.pexels.com/photo/skyline-on-sea-horizon-19541576/", "photographer": "Vietrov", "photographer_url": "https://www.pexels.com/@vietrov-851029180", "photographer_id": 851029180, "avg_color": "#6C6E6D", "src": {"original": "https://images.pexels.com/photos/19541576/pexels-photo-19541576.jpeg", "large2x": "https://images.pexels.com/photos/19541576/pexels-photo-19541576.jpeg?auto=compress&cs=tinysrgb&dpr=2&h=650&w=940", "large": "https://images.pexels.com/photos/19541576/pexels-photo-19541576.jpeg?auto=compress&cs=tinysrgb&h=650&w=940", "medium": "https://images.pexels.com/photos/19541576/pexels-photo-19541576.jpeg?auto=compress&cs=tinysrgb&h=350", "small": "https://images.pexels.com/photos/19541576/pexels-photo-19541576.jpeg?auto=compress&cs=tinysrgb&h=130", "portrait": "https://images.pexels.com/photos/19541576/pexels-photo-19541576.jpeg?auto=compress&cs=tinysrgb&fit=crop&h=1200&w=800", "landscape": "https://images.pexels.com/photos/19541576/pexels-photo-19541576.jpeg?auto=compress&cs=tinysrgb&fit=crop&h=627&w=1200", "tiny": "https://images.pexels.com/photos/19541576/pexels-photo-19541576.jpeg?auto=compress&cs=tinysrgb&dpr=1&fit=crop&h=200&w=280"}, "liked": false, "alt": "Free stock photo of big city, horizon, sunset"}, {"id": 19535026, "width": 5152, "height": 7728, "url": "https://www.pexels.com/photo/photo-of-the-varda-viaduct-in-adana-turkey-19535026/", "photographer": "Osman Arabac\u0131", "photographer_url": "https://www.pexels.com/@osman-arabaci-2017313", "photographer_id": 2017313, "avg_color": "#5C6B64", "src": {"original": "https://images.pexels.com/photos/19535026/pexels-photo-19535026.jpeg", "large2x": "https://images.pexels.com/photos/19535026/pexels-photo-19535026.jpeg?auto=compress&cs=tinysrgb&dpr=2&h=650&w=940", "large": "https://images.pexels.com/photos/19535026/pexels-photo-19535026.jpeg?auto=compress&cs=tinysrgb&h=650&w=940", "medium": "https://images.pexels.com/photos/19535026/pexels-photo-19535026.jpeg?auto=compress&cs=tinysrgb&h=350", "small": "https://images.pexels.com/photos/19535026/pexels-photo-19535026.jpeg?auto=compress&cs=tinysrgb&h=130", "portrait": "https://images.pexels.com/photos/19535026/pexels-photo-19535026.jpeg?auto=compress&cs=tinysrgb&fit=crop&h=1200&w=800", "landscape": "https://images.pexels.com/photos/19535026/pexels-photo-19535026.jpeg?auto=compress&cs=tinysrgb&fit=crop&h=627&w=1200", "tiny": "https://images.pexels.com/photos/19535026/pexels-photo-19535026.jpeg?auto=compress&cs=tinysrgb&dpr=1&fit=crop&h=200&w=280"}, "liked": false, "alt": ""}, {"id": 19490436, "width": 4480, "height": 6720, "url": "https://www.pexels.com/photo/scenic-view-of-a-coast-19490436/", "photographer": "Mustafa Kalkan", "photographer_url": "https://www.pexels.com/@mertal", "photographer_id": 359552698, "avg_color": "#495444", "src": {"original": "https://images.pexels.com/photos/19490436/pexels-photo-19490436.jpeg", "large2x": "https://images.pexels.com/photos/19490436/pexels-photo-19490436.jpeg?auto=compress&cs=tinysrgb&dpr=2&h=650&w=940", "large": "https://images.pexels.com/photos/19490436/pexels-photo-19490436.jpeg?auto=compress&cs=tinysrgb&h=650&w=940", "medium": "https://images.pexels.com/photos/19490436/pexels-photo-19490436.jpeg?auto=compress&cs=tinysrgb&h=350", "small": "https://images.pexels.com/photos/19490436/pexels-photo-19490436.jpeg?auto=compress&cs=tinysrgb&h=130", "portrait": "https://images.pexels.com/photos/19490436/pexels-photo-19490436.jpeg?auto=compress&cs=tinysrgb&fit=crop&h=1200&w=800", "landscape": "https://images.pexels.com/photos/19490436/pexels-photo-19490436.jpeg?auto=compress&cs=tinysrgb&fit=crop&h=627&w=1200", "tiny": "https://images.pexels.com/photos/19490436/pexels-photo-19490436.jpeg?auto=compress&cs=tinysrgb&dpr=1&fit=crop&h=200&w=280"}, "liked": false, "alt": ""}, {"id": 19489379, "width": 3888, "height": 5184, "url": "https://www.pexels.com/photo/dawn-sky-above-forest-19489379/", "photographer": "Lisa Fotios", "photographer_url": "https://www.pexels.com/@fotios-photos", "photographer_id": 26735, "avg_color": "#9B909E", "src": {"original": "https://images.pexels.com/photos/19489379/pexels-photo-19489379.jpeg", "large2x": "https://images.pexels.com/photos/19489379/pexels-photo-19489379.jpeg?auto=compress&cs=tinysrgb&dpr=2&h=650&w=940", "large": "https://images.pexels.com/photos/19489379/pexels-photo-19489379.jpeg?auto=compress&cs=tinysrgb&h=650&w=940", "medium": "https://images.pexels.com/photos/19489379/pexels-photo-19489379.jpeg?auto=compress&cs=tinysrgb&h=350", "small": "https://images.pexels.com/photos/19489379/pexels-photo-19489379.jpeg?auto=compress&cs=tinysrgb&h=130", "portrait": "https://images.pexels.com/photos/19489379/pexels-photo-19489379.jpeg?auto=compress&cs=tinysrgb&fit=crop&h=1200&w=800", "landscape": "https://images.pexels.com/photos/19489379/pexels-photo-19489379.jpeg?auto=compress&cs=tinysrgb&fit=crop&h=627&w=1200", "tiny": "https://images.pexels.com/photos/19489379/pexels-photo-19489379.jpeg?auto=compress&cs=tinysrgb&dpr=1&fit=crop&h=200&w=280"}, "liked": false, "alt": "Free stock photo of cloud, clouds, nature"}, {"id": 3011842, "width": 4000, "height": 5000, "url": "https://www.pexels.com/photo/aerial-photo-of-mountains-near-body-of-water-under-cloudy-sky-3011842/", "photographer": "Marius Schmidt", "photographer_url": "https://www.pexels.com/@marius-schmidt-600183", "photographer_id": 600183, "avg_color": "#596162", "src": {"original": "https://images.pexels.com/photos/3011842/pexels-photo-3011842.jpeg", "large2x": "https://images.pexels.com/photos/3011842/pexels-photo-3011842.jpeg?auto=compress&cs=tinysrgb&dpr=2&h=650&w=940", "large": "https://images.pexels.com/photos/3011842/pexels-photo-3011842.jpeg?auto=compress&cs=tinysrgb&h=650&w=940", "medium": "https://images.pexels.com/photos/3011842/pexels-photo-3011842.jpeg?auto=compress&cs=tinysrgb&h=350", "small": "https://images.pexels.com/photos/3011842/pexels-photo-3011842.jpeg?auto=compress&cs=tinysrgb&h=130", "portrait": "https://images.pexels.com/photos/3011842/pexels-photo-3011842.jpeg?auto=compress&cs=tinysrgb&fit=crop&h=1200&w=800", "landscape": "https://images.pexels.com/photos/3011842/pexels-photo-3011842.jpeg?auto=compress&cs=tinysrgb&fit=crop&h=627&w=1200", "tiny": "https://images.pexels.com/photos/3011842/pexels-photo-3011842.jpeg?auto=compress&cs=tinysrgb&dpr=1&fit=crop&h=200&w=280"}, "liked": false, "alt": "Aerial Photo of Mountains Near Body of Water Under Cloudy Sky"}, {"id": 36717, "width": 1920, "height": 1195, "url": "https://www.pexels.com/photo/silhouette-of-tree-near-body-of-water-during-golden-hour-36717/", "photographer": "Pixabay", "photographer_url": "https://www.pexels.com/@pixabay", "photographer_id": 2659, "avg_color": "#4A1E33", "src": {"original": "https://images.pexels.com/photos/36717/amazing-animal-beautiful-beautifull.jpg", "large2x": "https://images.pexels.com/photos/36717/amazing-animal-beautiful-beautifull.jpg?auto=compress&cs=tinysrgb&dpr=2&h=650&w=940", "large": "https://images.pexels.com/photos/36717/amazing-animal-beautiful-beautifull.jpg?auto=compress&cs=tinysrgb&h=650&w=940", "medium": "https://images.pexels.com/photos/36717/amazing-animal-beautiful-beautifull.jpg?auto=compress&cs=tinysrgb&h=350", "small": "https://images.pexels.com/photos/36717/amazing-animal-beautiful-beautifull.jpg?auto=compress&cs=tinysrgb&h=130", "portrait": "https://images.pexels.com/photos/36717/amazing-animal-beautiful-beautifull.jpg?auto=compress&cs=tinysrgb&fit=crop&h=1200&w=800", "landscape": "https://images.pexels.com/photos/36717/amazing-animal-beautiful-beautifull.jpg?auto=compress&cs=tinysrgb&fit=crop&h=627&w=1200", "tiny": "https://images.pexels.com/photos/36717/amazing-animal-beautiful-beautifull.jpg?auto=compress&cs=tinysrgb&dpr=1&fit=crop&h=200&w=280"}, "liked": false, "alt": "Silhouette of Tree Near Body of Water during Golden Hour"}, {"id": 417074, "width": 4226, "height": 2847, "url": "https://www.pexels.com/photo/lake-and-mountain-417074/", "photographer": "James Wheeler", "photographer_url": "https://www.pexels.com/@souvenirpixels", "photographer_id": 558609, "avg_color": "#346F7B", "src": {"original": "https://images.pexels.com/photos/417074/pexels-photo-417074.jpeg", "large2x": "https://images.pexels.com/photos/417074/pexels-photo-417074.jpeg?auto=compress&cs=tinysrgb&dpr=2&h=650&w=940", "large": "https://images.pexels.com/photos/417074/pexels-photo-417074.jpeg?auto=compress&cs=tinysrgb&h=650&w=940", "medium": "https://images.pexels.com/photos/417074/pexels-photo-417074.jpeg?auto=compress&cs=tinysrgb&h=350", "small": "https://images.pexels.com/photos/417074/pexels-photo-417074.jpeg?auto=compress&cs=tinysrgb&h=130", "portrait": "https://images.pexels.com/photos/417074/pexels-photo-417074.jpeg?auto=compress&cs=tinysrgb&fit=crop&h=1200&w=800", "landscape": "https://images.pexels.com/photos/417074/pexels-photo-417074.jpeg?auto=compress&cs=tinysrgb&fit=crop&h=627&w=1200", "tiny": "https://images.pexels.com/photos/417074/pexels-photo-417074.jpeg?auto=compress&cs=tinysrgb&dpr=1&fit=crop&h=200&w=280"}, "liked": false, "alt": "Lake and Mountain"}, {"id": 443446, "width": 5266, "height": 3403, "url": "https://www.pexels.com/photo/lake-and-mountain-under-white-sky-443446/", "photographer": "eberhard grossgasteiger", "photographer_url": "https://www.pexels.com/@eberhardgross", "photographer_id": 121938, "avg_color": "#4F787C", "src": {"original": "https://images.pexels.com/photos/443446/pexels-photo-443446.jpeg", "large2x": "https://images.pexels.com/photos/443446/pexels-photo-443446.jpeg?auto=compress&cs=tinysrgb&dpr=2&h=650&w=940", "large": "https://images.pexels.com/photos/443446/pexels-photo-443446.jpeg?auto=compress&cs=tinysrgb&h=650&w=940", "medium": "https://images.pexels.com/photos/443446/pexels-photo-443446.jpeg?auto=compress&cs=tinysrgb&h=350", "small": "https://images.pexels.com/photos/443446/pexels-photo-443446.jpeg?auto=compress&cs=tinysrgb&h=130", "portrait": "https://images.pexels.com/photos/443446/pexels-photo-443446.jpeg?auto=compress&cs=tinysrgb&fit=crop&h=1200&w=800", "landscape": "https://images.pexels.com/photos/443446/pexels-photo-443446.jpeg?auto=compress&cs=tinysrgb&fit=crop&h=627&w=1200", "tiny": "https://images.pexels.com/photos/443446/pexels-photo-443446.jpeg?auto=compress&cs=tinysrgb&dpr=1&fit=crop&h=200&w=280"}, "liked": false, "alt": "Lake and Mountain Under White Sky"}, {"id": 1486974, "width": 3834, "height": 5427, "url": "https://www.pexels.com/photo/symmetrical-photography-of-clouds-covered-blue-sky-1486974/", "photographer": "James Wheeler", "photographer_url": "https://www.pexels.com/@souvenirpixels", "photographer_id": 558609, "avg_color": "#876C76", "src": {"original": "https://images.pexels.com/photos/1486974/pexels-photo-1486974.jpeg", "large2x": "https://images.pexels.com/photos/1486974/pexels-photo-1486974.jpeg?auto=compress&cs=tinysrgb&dpr=2&h=650&w=940", "large": "https://images.pexels.com/photos/1486974/pexels-photo-1486974.jpeg?auto=compress&cs=tinysrgb&h=650&w=940", "medium": "https://images.pexels.com/photos/1486974/pexels-photo-1486974.jpeg?auto=compress&cs=tinysrgb&h=350", "small": "https://images.pexels.com/photos/1486974/pexels-photo-1486974.jpeg?auto=compress&cs=tinysrgb&h=130", "portrait": "https://images.pexels.com/photos/1486974/pexels-photo-1486974.jpeg?auto=compress&cs=tinysrgb&fit=crop&h=1200&w=800", "landscape": "https://images.pexels.com/photos/1486974/pexels-photo-1486974.jpeg?auto=compress&cs=tinysrgb&fit=crop&h=627&w=1200", "tiny": "https://images.pexels.com/photos/1486974/pexels-photo-1486974.jpeg?auto=compress&cs=tinysrgb&dpr=1&fit=crop&h=200&w=280"}, "liked": false, "alt": "Symmetrical Photography of Clouds Covered Blue Sky"}, {"id": 691668, "width": 5472, "height": 3648, "url": "https://www.pexels.com/photo/landscape-photography-of-mountains-covered-in-snow-691668/", "photographer": "eberhard grossgasteiger", "photographer_url": "https://www.pexels.com/@eberhardgross", "photographer_id": 121938, "avg_color": "#9DA1A7", "src": {"original": "https://images.pexels.com/photos/691668/pexels-photo-691668.jpeg", "large2x": "https://images.pexels.com/photos/691668/pexels-photo-691668.jpeg?auto=compress&cs=tinysrgb&dpr=2&h=650&w=940", "large": "https://images.pexels.com/photos/691668/pexels-photo-691668.jpeg?auto=compress&cs=tinysrgb&h=650&w=940", "medium": "https://images.pexels.com/photos/691668/pexels-photo-691668.jpeg?auto=compress&cs=tinysrgb&h=350", "small": "https://images.pexels.com/photos/691668/pexels-photo-691668.jpeg?auto=compress&cs=tinysrgb&h=130", "portrait": "https://images.pexels.com/photos/691668/pexels-photo-691668.jpeg?auto=compress&cs=tinysrgb&fit=crop&h=1200&w=800", "landscape": "https://images.pexels.com/photos/691668/pexels-photo-691668.jpeg?auto=compress&cs=tinysrgb&fit=crop&h=627&w=1200", "tiny": "https://images.pexels.com/photos/691668/pexels-photo-691668.jpeg?auto=compress&cs=tinysrgb&dpr=1&fit=crop&h=200&w=280"}, "liked": false, "alt": "Landscape Photography of Mountains Covered in Snow"}, {"id": 3617500, "width": 5266, "height": 6583, "url": "https://www.pexels.com/photo/blue-and-green-sky-and-mountain-3617500/", "photographer": "Benjamin Suter", "photographer_url": "https://www.pexels.com/@benjaminjsuter", "photographer_id": 1166597, "avg_color": "#0B5E64", "src": {"original": "https://images.pexels.com/photos/3617500/pexels-photo-3617500.jpeg", "large2x": "https://images.pexels.com/photos/3617500/pexels-photo-3617500.jpeg?auto=compress&cs=tinysrgb&dpr=2&h=650&w=940", "large": "https://images.pexels.com/photos/3617500/pexels-photo-3617500.jpeg?auto=compress&cs=tinysrgb&h=650&w=940", "medium": "https://images.pexels.com/photos/3617500/pexels-photo-3617500.jpeg?auto=compress&cs=tinysrgb&h=350", "small": "https://images.pexels.com/photos/3617500/pexels-photo-3617500.jpeg?auto=compress&cs=tinysrgb&h=130", "portrait": "https://images.pexels.com/photos/3617500/pexels-photo-3617500.jpeg?auto=compress&cs=tinysrgb&fit=crop&h=1200&w=800", "landscape": "https://images.pexels.com/photos/3617500/pexels-photo-3617500.jpeg?auto=compress&cs=tinysrgb&fit=crop&h=627&w=1200", "tiny": "https://images.pexels.com/photos/3617500/pexels-photo-3617500.jpeg?auto=compress&cs=tinysrgb&dpr=1&fit=crop&h=200&w=280"}, "liked": false, "alt": "Blue and Green Sky and Mountain"}, {"id": 414612, "width": 5306, "height": 3770, "url": "https://www.pexels.com/photo/brown-wooden-dock-414612/", "photographer": "James Wheeler", "photographer_url": "https://www.pexels.com/@souvenirpixels", "photographer_id": 558609, "avg_color": "#1B4153", "src": {"original": "https://images.pexels.com/photos/414612/pexels-photo-414612.jpeg", "large2x": "https://images.pexels.com/photos/414612/pexels-photo-414612.jpeg?auto=compress&cs=tinysrgb&dpr=2&h=650&w=940", "large": "https://images.pexels.com/photos/414612/pexels-photo-414612.jpeg?auto=compress&cs=tinysrgb&h=650&w=940", "medium": "https://images.pexels.com/photos/414612/pexels-photo-414612.jpeg?auto=compress&cs=tinysrgb&h=350", "small": "https://images.pexels.com/photos/414612/pexels-photo-414612.jpeg?auto=compress&cs=tinysrgb&h=130", "portrait": "https://images.pexels.com/photos/414612/pexels-photo-414612.jpeg?auto=compress&cs=tinysrgb&fit=crop&h=1200&w=800", "landscape": "https://images.pexels.com/photos/414612/pexels-photo-414612.jpeg?auto=compress&cs=tinysrgb&fit=crop&h=627&w=1200", "tiny": "https://images.pexels.com/photos/414612/pexels-photo-414612.jpeg?auto=compress&cs=tinysrgb&dpr=1&fit=crop&h=200&w=280"}, "liked": false, "alt": "Brown Wooden Dock"}, {"id": 842711, "width": 5472, "height": 3648, "url": "https://www.pexels.com/photo/brown-and-green-mountain-view-photo-842711/", "photographer": "Christian Heitz", "photographer_url": "https://www.pexels.com/@christian-heitz-285904", "photographer_id": 285904, "avg_color": "#765D3D", "src": {"original": "https://images.pexels.com/photos/842711/pexels-photo-842711.jpeg", "large2x": "https://images.pexels.com/photos/842711/pexels-photo-842711.jpeg?auto=compress&cs=tinysrgb&dpr=2&h=650&w=940", "large": "https://images.pexels.com/photos/842711/pexels-photo-842711.jpeg?auto=compress&cs=tinysrgb&h=650&w=940", "medium": "https://images.pexels.com/photos/842711/pexels-photo-842711.jpeg?auto=compress&cs=tinysrgb&h=350", "small": "https://images.pexels.com/photos/842711/pexels-photo-842711.jpeg?auto=compress&cs=tinysrgb&h=130", "portrait": "https://images.pexels.com/photos/842711/pexels-photo-842711.jpeg?auto=compress&cs=tinysrgb&fit=crop&h=1200&w=800", "landscape": "https://images.pexels.com/photos/842711/pexels-photo-842711.jpeg?auto=compress&cs=tinysrgb&fit=crop&h=627&w=1200", "tiny": "https://images.pexels.com/photos/842711/pexels-photo-842711.jpeg?auto=compress&cs=tinysrgb&dpr=1&fit=crop&h=200&w=280"}, "liked": false, "alt": "Brown and Green Mountain View Photo"}, {"id": 346529, "width": 6000, "height": 4000, "url": "https://www.pexels.com/photo/calm-body-of-lake-between-mountains-346529/", "photographer": "Bri Schneiter", "photographer_url": "https://www.pexels.com/@bri-schneiter-28802", "photographer_id": 28802, "avg_color": "#536D84", "src": {"original": "https://images.pexels.com/photos/346529/pexels-photo-346529.jpeg", "large2x": "https://images.pexels.com/photos/346529/pexels-photo-346529.jpeg?auto=compress&cs=tinysrgb&dpr=2&h=650&w=940", "large": "https://images.pexels.com/photos/346529/pexels-photo-346529.jpeg?auto=compress&cs=tinysrgb&h=650&w=940", "medium": "https://images.pexels.com/photos/346529/pexels-photo-346529.jpeg?auto=compress&cs=tinysrgb&h=350", "small": "https://images.pexels.com/photos/346529/pexels-photo-346529.jpeg?auto=compress&cs=tinysrgb&h=130", "portrait": "https://images.pexels.com/photos/346529/pexels-photo-346529.jpeg?auto=compress&cs=tinysrgb&fit=crop&h=1200&w=800", "landscape": "https://images.pexels.com/photos/346529/pexels-photo-346529.jpeg?auto=compress&cs=tinysrgb&fit=crop&h=627&w=1200", "tiny": "https://images.pexels.com/photos/346529/pexels-photo-346529.jpeg?auto=compress&cs=tinysrgb&dpr=1&fit=crop&h=200&w=280"}, "liked": false, "alt": "Calm Body of Lake Between Mountains"}, {"id": 1266810, "width": 3456, "height": 4608, "url": "https://www.pexels.com/photo/scenic-view-of-mountains-during-dawn-1266810/", "photographer": "Simon Berger", "photographer_url": "https://www.pexels.com/@8moments", "photographer_id": 181980, "avg_color": "#666769", "src": {"original": "https://images.pexels.com/photos/1266810/pexels-photo-1266810.jpeg", "large2x": "https://images.pexels.com/photos/1266810/pexels-photo-1266810.jpeg?auto=compress&cs=tinysrgb&dpr=2&h=650&w=940", "large": "https://images.pexels.com/photos/1266810/pexels-photo-1266810.jpeg?auto=compress&cs=tinysrgb&h=650&w=940", "medium": "https://images.pexels.com/photos/1266810/pexels-photo-1266810.jpeg?auto=compress&cs=tinysrgb&h=350", "small": "https://images.pexels.com/photos/1266810/pexels-photo-1266810.jpeg?auto=compress&cs=tinysrgb&h=130", "portrait": "https://images.pexels.com/photos/1266810/pexels-photo-1266810.jpeg?auto=compress&cs=tinysrgb&fit=crop&h=1200&w=800", "landscape": "https://images.pexels.com/photos/1266810/pexels-photo-1266810.jpeg?auto=compress&cs=tinysrgb&fit=crop&h=627&w=1200", "tiny": "https://images.pexels.com/photos/1266810/pexels-photo-1266810.jpeg?auto=compress&cs=tinysrgb&dpr=1&fit=crop&h=200&w=280"}, "liked": false, "alt": "Scenic View of Mountains During Dawn"}, {"id": 1166209, "width": 5707, "height": 3731, "url": "https://www.pexels.com/photo/photo-lavender-flower-field-under-pink-sky-1166209/", "photographer": "David Bartus", "photographer_url": "https://www.pexels.com/@david-bartus-43782", "photographer_id": 43782, "avg_color": "#A3798A", "src": {"original": "https://images.pexels.com/photos/1166209/pexels-photo-1166209.jpeg", "large2x": "https://images.pexels.com/photos/1166209/pexels-photo-1166209.jpeg?auto=compress&cs=tinysrgb&dpr=2&h=650&w=940", "large": "https://images.pexels.com/photos/1166209/pexels-photo-1166209.jpeg?auto=compress&cs=tinysrgb&h=650&w=940", "medium": "https://images.pexels.com/photos/1166209/pexels-photo-1166209.jpeg?auto=compress&cs=tinysrgb&h=350", "small": "https://images.pexels.com/photos/1166209/pexels-photo-1166209.jpeg?auto=compress&cs=tinysrgb&h=130", "portrait": "https://images.pexels.com/photos/1166209/pexels-photo-1166209.jpeg?auto=compress&cs=tinysrgb&fit=crop&h=1200&w=800", "landscape": "https://images.pexels.com/photos/1166209/pexels-photo-1166209.jpeg?auto=compress&cs=tinysrgb&fit=crop&h=627&w=1200", "tiny": "https://images.pexels.com/photos/1166209/pexels-photo-1166209.jpeg?auto=compress&cs=tinysrgb&dpr=1&fit=crop&h=200&w=280"}, "liked": false, "alt": "Photo Lavender Flower Field Under Pink Sky"}], "total_results": 8000, "next_page": "https://api.pexels.com/v1/search/?page=2&per_page=20&query=landscape+with+sky"}